\relax 
\select@language{english}
\@writefile{toc}{\select@language{english}}
\@writefile{lof}{\select@language{english}}
\@writefile{lot}{\select@language{english}}
\@writefile{toc}{\contentsline {section}{\numberline {1}Introduction}{2}}
\@writefile{toc}{\contentsline {section}{\numberline {2}Numerical Method}{2}}
\newlabel{Chp:NUM}{{2}{2}}
\newlabel{eq:general}{{1}{2}}
\@writefile{toc}{\contentsline {subsection}{\numberline {2.1}Algorithm}{2}}
\newlabel{chp:algo}{{2.1}{2}}
\@writefile{toc}{\contentsline {subsection}{\numberline {2.2}Staggered grid}{2}}
\newlabel{chp:grid}{{2.2}{2}}
\@writefile{toc}{\contentsline {subsection}{\numberline {2.3}Polynomials and operators}{2}}
\newlabel{pol}{{2.3}{2}}
\@writefile{lof}{\contentsline {figure}{\numberline {1}{\ignorespaces The subdomain grid in 2D with red dot represent Gauss point and black square the Labatto point.\relax }}{3}}
\providecommand*\caption@xref[2]{\@setref\relax\@undefined{#1}}
\newlabel{fig:blockmesh}{{1}{3}}
\newlabel{eq:g2l}{{5}{3}}
\newlabel{eq:differential}{{6}{3}}
\@writefile{toc}{\contentsline {subsection}{\numberline {2.4}Mapping}{3}}
\newlabel{mapping}{{2.4}{3}}
\newlabel{eq:map}{{7}{3}}
\newlabel{eq:fluxx}{{9}{3}}
\newlabel{eq:fluyy}{{10}{3}}
\@writefile{lof}{\contentsline {figure}{\numberline {2}{\ignorespaces Example of horizontal fluxes comunication on Labotto mesh,with red dot represent Gauss point and black square the Labatto point. \relax }}{4}}
\newlabel{fig:interface}{{2}{4}}
\@writefile{toc}{\contentsline {subsection}{\numberline {2.5}Interface and boundary}{4}}
\newlabel{interface}{{2.5}{4}}
\@writefile{toc}{\contentsline {subsection}{\numberline {2.6}Special treatment for diffusion term}{4}}
\newlabel{twice}{{2.6}{4}}
\@writefile{toc}{\contentsline {section}{\numberline {3}Validation}{4}}
\newlabel{Chp:VAL}{{3}{4}}
\newlabel{eq:VAL}{{11}{4}}
\newlabel{eq:RMS}{{12}{4}}
\@writefile{lof}{\contentsline {figure}{\numberline {3}{\ignorespaces The comparison of analytical solution(a) and numerical solution (b) with N\_block=12,Ng=10 . RMS is presented in (c) with(-+-); green dash line denotes the 6th order reference line.\relax }}{5}}
\newlabel{fig:val}{{3}{5}}
\@writefile{lot}{\contentsline {table}{\numberline {1}{\ignorespaces  Validation\relax }}{5}}
\newlabel{tab:circle}{{1}{5}}
\@writefile{toc}{\contentsline {section}{\numberline {4}Heat conduction on complex geometry}{5}}
\newlabel{Chp:HEAT}{{4}{5}}
\@writefile{toc}{\contentsline {subsection}{\numberline {4.1}Configeration}{5}}
\newlabel{eq:MAIN}{{13}{5}}
\newlabel{fig:realmesh}{{\caption@xref {fig:realmesh}{ on input line 220}}{6}}
\@writefile{lof}{\contentsline {figure}{\numberline {4}{\ignorespaces The real mesh of computation domain.Nodes above represent solution points with N\_block=56,Ng=7.\relax }}{6}}
\@writefile{lot}{\contentsline {table}{\numberline {2}{\ignorespaces  Simulation set up\relax }}{6}}
\newlabel{tab:case}{{\caption@xref {tab:case}{ on input line 239}}{6}}
\@writefile{toc}{\contentsline {subsection}{\numberline {4.2}Result}{6}}
\@writefile{lof}{\contentsline {figure}{\numberline {5}{\ignorespaces Time evolution of heat conduction on multiple-hole geometry at t=0.5,2.5,7.5,15\relax }}{6}}
\newlabel{fig:evo}{{5}{6}}
\@writefile{lof}{\contentsline {figure}{\numberline {6}{\ignorespaces Slices plot at position (i)and (ii)in Fig.~\ref  {fig:evo}(d).\relax }}{6}}
\newlabel{fig;line}{{6}{6}}
\@writefile{toc}{\contentsline {subsection}{\numberline {4.3}Comparison with MPI}{7}}
\@writefile{lot}{\contentsline {table}{\numberline {3}{\ignorespaces  Computation time of case A and case B.\relax }}{7}}
\newlabel{tab:mpi}{{3}{7}}
\@writefile{toc}{\contentsline {section}{\numberline {5}Conclusion}{7}}
\@writefile{toc}{\contentsline {section}{\numberline {6}Reference}{7}}
