1.01321 1.06786 1.16107 1.28416 1.4257 1.57281 1.71291 1.83443 1.92709 1.982 
1.01237 1.06352 1.15078 1.26611 1.399 1.53762 1.67024 1.78586 1.87443 1.92709 
1.01099 1.05636 1.13382 1.23637 1.35496 1.47935 1.59923 1.70459 1.78586 1.83443 
1.00925 1.04736 1.11247 1.19884 1.29913 1.40502 1.50795 1.59923 1.67024 1.71291 
1.00734 1.03744 1.08893 1.15736 1.23715 1.32193 1.40502 1.47935 1.53762 1.57281 
1.00541 1.02747 1.06524 1.11551 1.17433 1.23715 1.29913 1.35496 1.399 1.4257 
1.00362 1.01818 1.04318 1.07647 1.11551 1.15736 1.19884 1.23637 1.26611 1.28416 
1.00207 1.01028 1.02439 1.04318 1.06524 1.08893 1.11247 1.13382 1.15078 1.16107 
1.00088 1.00433 1.01028 1.01818 1.02747 1.03744 1.04736 1.05636 1.06352 1.06786 
1.00017 1.00088 1.00207 1.00362 1.00541 1.00734 1.00925 1.01099 1.01237 1.01321 
1.03938 1.20265 1.47904 1.83668 2.22916 2.60353 2.91568 3.14422 3.29066 3.36656 
1.03696 1.19066 1.45082 1.78756 2.15767 2.51229 2.8108 3.03278 3.17769 3.25399 
1.0333 1.17197 1.40684 1.71124 2.04698 2.37134 2.64874 2.85997 3.00161 3.07786 
1.02915 1.15042 1.35599 1.62304 1.91929 2.20885 2.46143 2.65903 2.79541 2.87052 
1.02504 1.12916 1.30586 1.53615 1.79348 2.04843 2.27555 2.458 2.58738 2.66011 
1.02141 1.11031 1.26137 1.45893 1.68142 1.90487 2.10792 2.27498 2.39621 2.46555 
1.01841 1.09478 1.2247 1.39518 1.58857 1.78518 1.9669 2.11939 2.23214 2.29752 
1.01611 1.08288 1.19657 1.34616 1.51685 1.69209 1.85623 1.99605 2.10088 2.16228 
1.01451 1.07461 1.17704 1.31207 1.46681 1.62675 1.77795 1.90805 2.00652 2.06458 
1.01364 1.07005 1.16622 1.29312 1.43888 1.5901 1.73379 1.85811 1.95268 2.00863 
4.90573 4.91195 4.92184 4.93344 4.94471 4.95411 4.96097 4.9654 4.96794 4.96915 
4.53716 4.566 4.61239 4.66783 4.72268 4.76916 4.80351 4.82594 4.8389 4.84509 
3.97681 4.03681 4.13422 4.25232 4.37132 4.47416 4.55155 4.6029 4.63298 4.64751 
3.33858 3.43014 3.57989 3.76381 3.95248 4.11891 4.24671 4.33308 4.38452 4.40969 
2.7137 2.83268 3.0284 3.27132 3.52437 3.75179 3.92987 4.05244 4.12664 4.16341 
2.16309 2.30308 2.53459 2.82462 3.13081 3.41053 3.63341 3.78942 3.88529 3.93337 
1.71961 1.87351 2.12956 2.45327 2.79915 3.11967 3.37892 3.56303 3.67767 3.73575 
1.39364 1.55507 1.82544 2.17042 2.54306 2.89254 3.17872 3.38437 3.51378 3.57989 
1.17958 1.34419 1.62152 1.97814 2.36676 2.73458 3.03852 3.25883 3.39855 3.47035 
1.06618 1.23164 1.51158 1.87337 2.26977 2.64702 2.96042 3.18871 3.33414 3.40913 
1.04776 1.23785 1.56506 2.00349 2.52448 3.09411 3.67383 4.21419 4.65532 4.92962 
1.04756 1.23691 1.56313 2.00071 2.52124 3.09091 3.67115 4.21235 4.65443 4.92944 
1.04661 1.2325 1.55407 1.98761 2.50595 3.07578 3.65842 4.20364 4.6502 4.92857 
1.04438 1.22207 1.53252 1.95618 2.46896 3.03892 3.62721 4.18217 4.63972 4.92642 
1.04091 1.20582 1.49844 1.90571 2.40868 2.97808 3.57511 4.14596 4.6219 4.92275 
1.03693 1.18705 1.45836 1.84511 2.33483 2.90225 3.50923 4.09962 4.59887 4.91799 
1.03322 1.16963 1.42046 1.78656 2.26201 2.82618 3.44221 4.05196 4.575 4.91309 
1.03025 1.15584 1.39003 1.73871 2.20144 2.76205 3.38519 4.01121 4.55453 4.90896 
1.02812 1.14636 1.36895 1.70518 2.15852 2.71624 3.34432 3.98205 4.53995 4.9061 
1.02692 1.14119 1.35737 1.68667 2.13467 2.69072 3.32156 3.96589 4.53194 4.90455 
1.02692 1.14119 1.35737 1.68667 2.13467 2.69072 3.32156 3.96589 4.53194 4.90455 
1.02812 1.14636 1.36895 1.70518 2.15852 2.71624 3.34432 3.98205 4.53995 4.9061 
1.03025 1.15584 1.39003 1.73871 2.20144 2.76205 3.38518 4.01121 4.55453 4.90896 
1.03322 1.16963 1.42046 1.78656 2.26201 2.82617 3.44221 4.05196 4.575 4.91309 
1.03693 1.18705 1.45836 1.84511 2.33483 2.90225 3.50923 4.09962 4.59887 4.91799 
1.04091 1.20582 1.49844 1.90571 2.40868 2.97808 3.57511 4.14596 4.6219 4.92275 
1.04438 1.22207 1.53252 1.95618 2.46896 3.03892 3.62721 4.18217 4.63972 4.92642 
1.04661 1.2325 1.55407 1.98761 2.50595 3.07578 3.65842 4.20364 4.6502 4.92857 
1.04756 1.23691 1.56313 2.00071 2.52124 3.09091 3.67115 4.21235 4.65443 4.92944 
1.04776 1.23785 1.56506 2.00349 2.52448 3.09411 3.67383 4.21419 4.65532 4.92962 
1.06618 1.23164 1.51158 1.87337 2.26977 2.64702 2.96042 3.18871 3.33414 3.40913 
1.17958 1.34419 1.62152 1.97814 2.36676 2.73457 3.03852 3.25883 3.39855 3.47035 
1.39364 1.55507 1.82544 2.17042 2.54306 2.89254 3.17872 3.38437 3.51378 3.57989 
1.71961 1.87351 2.12956 2.45327 2.79915 3.11967 3.37892 3.56303 3.67767 3.73575 
2.16309 2.30308 2.53459 2.82462 3.13081 3.41053 3.63341 3.78941 3.88528 3.93337 
2.7137 2.83268 3.0284 3.27132 3.52437 3.75179 3.92987 4.05244 4.12664 4.16341 
3.33858 3.43014 3.57989 3.76381 3.95248 4.11891 4.24671 4.33308 4.38452 4.40969 
3.97681 4.03681 4.13422 4.25232 4.37132 4.47416 4.55155 4.6029 4.63298 4.64751 
4.53716 4.566 4.61239 4.66783 4.72268 4.76916 4.80351 4.82594 4.8389 4.84509 
4.90573 4.91195 4.92184 4.93344 4.94471 4.95411 4.96097 4.9654 4.96794 4.96915 
1.01364 1.07005 1.16622 1.29312 1.43888 1.5901 1.73379 1.85811 1.95268 2.00863 
1.01451 1.07461 1.17704 1.31207 1.46681 1.62675 1.77795 1.90805 2.00652 2.06458 
1.01611 1.08288 1.19657 1.34616 1.51685 1.69209 1.85623 1.99605 2.10088 2.16228 
1.01841 1.09478 1.2247 1.39518 1.58857 1.78518 1.9669 2.11939 2.23214 2.29752 
1.02141 1.11031 1.26137 1.45893 1.68142 1.90487 2.10792 2.27498 2.39621 2.46555 
1.02504 1.12916 1.30586 1.53615 1.79348 2.04843 2.27555 2.458 2.58738 2.66011 
1.02915 1.15042 1.35599 1.62304 1.91929 2.20885 2.46143 2.65903 2.79541 2.87052 
1.0333 1.17197 1.40684 1.71124 2.04698 2.37134 2.64874 2.85997 3.00161 3.07786 
1.03696 1.19066 1.45082 1.78756 2.15767 2.51229 2.8108 3.03278 3.17769 3.25399 
1.03938 1.20265 1.47904 1.83668 2.22916 2.60353 2.91567 3.14422 3.29066 3.36656 
1.00017 1.00088 1.00207 1.00362 1.00541 1.00734 1.00925 1.01099 1.01237 1.01321 
1.00088 1.00433 1.01028 1.01818 1.02747 1.03744 1.04736 1.05636 1.06352 1.06786 
1.00207 1.01028 1.02439 1.04318 1.06524 1.08893 1.11247 1.13382 1.15078 1.16107 
1.00362 1.01818 1.04318 1.07647 1.11551 1.15736 1.19884 1.23637 1.26611 1.28416 
1.00541 1.02747 1.06524 1.11551 1.17433 1.23715 1.29913 1.35496 1.399 1.4257 
1.00734 1.03744 1.08893 1.15736 1.23715 1.32193 1.40502 1.47935 1.53762 1.57281 
1.00925 1.04736 1.11247 1.19884 1.29913 1.40502 1.50795 1.59923 1.67024 1.71291 
1.01099 1.05636 1.13382 1.23637 1.35496 1.47935 1.59923 1.70459 1.78586 1.83443 
1.01237 1.06352 1.15078 1.26611 1.399 1.53762 1.67024 1.78586 1.87443 1.92709 
1.01321 1.06786 1.16107 1.28416 1.4257 1.57281 1.71291 1.83443 1.92709 1.982 
2.00863 2.06458 2.16228 2.29752 2.46555 2.66011 2.87052 3.07786 3.25399 3.36656 
1.95268 2.00652 2.10088 2.23214 2.39621 2.58738 2.79541 3.00161 3.17769 3.29066 
1.85811 1.90805 1.99605 2.11939 2.27498 2.458 2.65903 2.85997 3.03278 3.14422 
1.73379 1.77795 1.85623 1.9669 2.10792 2.27555 2.46143 2.64874 2.8108 2.91567 
1.5901 1.62675 1.69209 1.78518 1.90487 2.04843 2.20885 2.37134 2.51229 2.60353 
1.43888 1.46681 1.51685 1.58857 1.68142 1.79348 1.91929 2.04698 2.15767 2.22916 
1.29312 1.31207 1.34616 1.39518 1.45893 1.53615 1.62304 1.71124 1.78756 1.83668 
1.16622 1.17704 1.19657 1.2247 1.26137 1.30586 1.35599 1.40684 1.45082 1.47904 
1.07005 1.07461 1.08288 1.09478 1.11031 1.12916 1.15042 1.17197 1.19066 1.20265 
1.01364 1.01451 1.01611 1.01841 1.02141 1.02504 1.02915 1.0333 1.03696 1.03938 
3.40051 3.46652 3.5658 3.67687 3.78651 3.89152 3.99114 4.08048 4.15062 4.1928 
3.28846 3.35614 3.4599 3.57919 3.70007 3.81739 3.92854 4.02742 4.10449 4.15062 
3.11277 3.18224 3.29151 3.42177 3.55863 3.69445 3.82381 3.93848 4.02742 4.08048 
2.90538 2.9757 3.08915 3.22936 3.3823 3.53838 3.68925 3.82381 3.92854 3.99114 
2.69428 2.76402 2.8791 3.02592 3.19175 3.36613 3.53838 3.69445 3.81739 3.89152 
2.49847 2.56629 2.6803 2.82968 3.00357 3.19175 3.3823 3.55863 3.70007 3.78651 
2.3288 2.39375 2.50455 2.6528 2.82968 3.02592 3.22936 3.42177 3.57919 3.67687 
2.19184 2.25355 2.35995 2.50455 2.6803 2.8791 3.08915 3.29151 3.4599 3.5658 
2.09264 2.15144 2.25355 2.39375 2.56629 2.76402 2.9757 3.18224 3.35614 3.46652 
2.03574 2.09264 2.19184 2.3288 2.49847 2.69428 2.90538 3.11277 3.28846 3.40051 
4.96966 4.97059 4.97181 4.97286 4.97351 4.97385 4.9741 4.97442 4.97477 4.97502 
4.84772 4.85255 4.85899 4.86468 4.86846 4.87068 4.87232 4.874 4.87563 4.87676 
4.65373 4.66527 4.68093 4.69542 4.70597 4.71309 4.7186 4.72361 4.72791 4.7307 
4.42055 4.44088 4.46908 4.4963 4.51779 4.53387 4.54694 4.55829 4.56744 4.57312 
4.17942 4.20963 4.25236 4.2952 4.33123 4.36031 4.38497 4.40628 4.4231 4.43337 
3.95444 3.99455 4.05224 4.11194 4.1647 4.20974 4.24933 4.28383 4.31091 4.32735 
3.76137 3.81046 3.88207 3.95811 4.02796 4.09021 4.14652 4.1961 4.23502 4.25858 
3.6092 3.66565 3.74896 3.83922 3.92463 4.00318 4.07585 4.14041 4.19115 4.22179 
3.5023 3.56408 3.65599 3.75702 3.85462 3.94638 4.0326 4.10974 4.17042 4.207 
3.44257 3.50738 3.60424 3.71159 3.81652 3.9164 4.01107 4.0961 4.16303 4.20334 
2.03574 2.09264 2.19184 2.3288 2.49847 2.69428 2.90538 3.11276 3.28846 3.40051 
2.09264 2.15144 2.25355 2.39375 2.56629 2.76402 2.9757 3.18224 3.35614 3.46652 
2.19184 2.25355 2.35995 2.50455 2.6803 2.8791 3.08915 3.29151 3.4599 3.5658 
2.3288 2.39375 2.50455 2.65279 2.82968 3.02592 3.22936 3.42177 3.57919 3.67687 
2.49847 2.56629 2.6803 2.82968 3.00357 3.19175 3.3823 3.55863 3.70007 3.78651 
2.69428 2.76402 2.8791 3.02592 3.19175 3.36612 3.53838 3.69445 3.81739 3.89152 
2.90538 2.9757 3.08915 3.22936 3.3823 3.53838 3.68925 3.82381 3.92854 3.99114 
3.11276 3.18224 3.29151 3.42177 3.55863 3.69445 3.82381 3.93847 4.02742 4.08048 
3.28846 3.35614 3.4599 3.57919 3.70007 3.81739 3.92854 4.02742 4.10449 4.15062 
3.40051 3.46652 3.5658 3.67687 3.78651 3.89152 3.99114 4.08048 4.15062 4.1928 
3.44257 3.50738 3.60424 3.71159 3.81652 3.9164 4.01107 4.0961 4.16303 4.20334 
3.5023 3.56408 3.65599 3.75702 3.85461 3.94638 4.0326 4.10974 4.17042 4.207 
3.6092 3.66565 3.74896 3.83922 3.92463 4.00318 4.07585 4.14041 4.19115 4.22179 
3.76137 3.81046 3.88207 3.95811 4.02796 4.09021 4.14652 4.1961 4.23502 4.25858 
3.95444 3.99455 4.05224 4.11194 4.1647 4.20974 4.24933 4.28383 4.31091 4.32735 
4.17942 4.20963 4.25236 4.2952 4.33123 4.36031 4.38497 4.40628 4.4231 4.43337 
4.42055 4.44088 4.46908 4.4963 4.51779 4.53387 4.54694 4.55829 4.56744 4.57312 
4.65373 4.66527 4.68093 4.69542 4.70597 4.71309 4.7186 4.72361 4.72791 4.7307 
4.84772 4.85255 4.85899 4.86468 4.86846 4.87068 4.87232 4.874 4.87563 4.87676 
4.96966 4.97059 4.97181 4.97286 4.97351 4.97385 4.9741 4.97442 4.97477 4.97502 
1.01364 1.01451 1.01611 1.01841 1.02141 1.02504 1.02915 1.0333 1.03696 1.03938 
1.07005 1.07461 1.08288 1.09478 1.11031 1.12916 1.15042 1.17197 1.19066 1.20265 
1.16622 1.17704 1.19657 1.2247 1.26137 1.30586 1.35599 1.40684 1.45082 1.47904 
1.29312 1.31207 1.34616 1.39518 1.45893 1.53615 1.62304 1.71124 1.78756 1.83668 
1.43888 1.46681 1.51685 1.58857 1.68142 1.79348 1.91929 2.04698 2.15767 2.22916 
1.5901 1.62675 1.69209 1.78518 1.90487 2.04843 2.20885 2.37134 2.51229 2.60353 
1.73379 1.77795 1.85623 1.9669 2.10792 2.27555 2.46143 2.64874 2.8108 2.91567 
1.85811 1.90805 1.99605 2.11939 2.27498 2.458 2.65903 2.85997 3.03278 3.14422 
1.95268 2.00652 2.10088 2.23214 2.39621 2.58738 2.79541 3.00161 3.17769 3.29066 
2.00863 2.06458 2.16228 2.29752 2.46555 2.66011 2.87052 3.07786 3.25399 3.36656 
4.90455 4.9061 4.90896 4.91309 4.91799 4.92275 4.92642 4.92857 4.92944 4.92962 
4.53194 4.53995 4.55453 4.575 4.59887 4.6219 4.63972 4.6502 4.65443 4.65532 
3.96589 3.98205 4.01121 4.05196 4.09962 4.14596 4.18217 4.20364 4.21235 4.21419 
3.32156 3.34432 3.38519 3.44221 3.50923 3.57511 3.62721 3.65842 3.67115 3.67384 
2.69072 2.71624 2.76205 2.82618 2.90225 2.97808 3.03892 3.07578 3.09091 3.09411 
2.13467 2.15852 2.20144 2.26201 2.33483 2.40868 2.46896 2.50595 2.52124 2.52448 
1.68667 1.70518 1.73871 1.78656 1.84511 1.90571 1.95618 1.98761 2.00071 2.00349 
1.35737 1.36895 1.39003 1.42046 1.45836 1.49844 1.53252 1.55407 1.56313 1.56506 
1.14119 1.14636 1.15584 1.16963 1.18705 1.20582 1.22207 1.2325 1.23691 1.23785 
1.02692 1.02812 1.03025 1.03322 1.03693 1.04091 1.04438 1.04661 1.04756 1.04776 
3.40913 3.47035 3.57989 3.73575 3.93337 4.16341 4.40969 4.64751 4.84509 4.96915 
3.33414 3.39855 3.51378 3.67767 3.88529 4.12664 4.38452 4.63298 4.8389 4.96794 
3.18871 3.25883 3.38437 3.56303 3.78942 4.05244 4.33308 4.6029 4.82594 4.9654 
2.96042 3.03852 3.17872 3.37892 3.63341 3.92987 4.24671 4.55155 4.80351 4.96097 
2.64702 2.73458 2.89254 3.11967 3.41053 3.75179 4.11891 4.47416 4.76916 4.95411 
2.26977 2.36676 2.54306 2.79915 3.13081 3.52437 3.95248 4.37132 4.72268 4.94471 
1.87337 1.97814 2.17042 2.45327 2.82462 3.27132 3.76381 4.25232 4.66783 4.93344 
1.51158 1.62152 1.82544 2.12956 2.53459 3.0284 3.57989 4.13422 4.61239 4.92184 
1.23164 1.34419 1.55507 1.87351 2.30308 2.83268 3.43014 4.03681 4.566 4.91195 
1.06618 1.17958 1.39364 1.71961 2.16309 2.7137 3.33858 3.97681 4.53716 4.90573 
4.20334 4.207 4.22179 4.25858 4.32735 4.43337 4.57312 4.7307 4.87676 4.97502 
4.16303 4.17042 4.19115 4.23502 4.31091 4.4231 4.56744 4.72791 4.87563 4.97477 
4.0961 4.10974 4.14041 4.1961 4.28383 4.40628 4.55829 4.72361 4.874 4.97442 
4.01107 4.0326 4.07585 4.14652 4.24933 4.38497 4.54694 4.7186 4.87232 4.9741 
3.9164 3.94638 4.00318 4.09021 4.20974 4.36031 4.53387 4.71309 4.87068 4.97385 
3.81652 3.85462 3.92463 4.02796 4.1647 4.33123 4.51779 4.70597 4.86846 4.97351 
3.71159 3.75702 3.83922 3.95811 4.11194 4.2952 4.4963 4.69542 4.86468 4.97286 
3.60424 3.65599 3.74896 3.88207 4.05224 4.25236 4.46908 4.68093 4.85899 4.97181 
3.50738 3.56408 3.66565 3.81046 3.99455 4.20963 4.44088 4.66527 4.85255 4.97059 
3.44257 3.5023 3.6092 3.76137 3.95444 4.17942 4.42055 4.65373 4.84772 4.96966 
4.98752 4.98805 4.98898 4.9902 4.99152 4.99267 4.99348 4.99393 4.9941 4.99414 
4.93903 4.94155 4.946 4.95193 4.95838 4.96412 4.96823 4.97052 4.97141 4.9716 
4.86388 4.86927 4.87881 4.89167 4.90586 4.91872 4.92809 4.93336 4.93543 4.93586 
4.7737 4.78246 4.79806 4.81921 4.84285 4.86457 4.8806 4.88972 4.89333 4.89408 
4.67539 4.68819 4.71098 4.74199 4.77679 4.80899 4.83297 4.84669 4.85215 4.85329 
4.57228 4.59015 4.62187 4.66483 4.71296 4.75754 4.79083 4.80994 4.81755 4.81915 
4.46759 4.49173 4.53419 4.59125 4.65481 4.71351 4.75733 4.78249 4.79253 4.79463 
4.36851 4.39949 4.45354 4.52557 4.60532 4.67875 4.73347 4.76487 4.77739 4.78001 
4.28676 4.32391 4.38828 4.47357 4.56764 4.65408 4.71842 4.7553 4.77 4.77307 
4.23571 4.27688 4.34799 4.4419 4.5453 4.64024 4.71087 4.75134 4.76745 4.77082 
4.77082 4.77307 4.78001 4.79463 4.81915 4.85329 4.89408 4.93586 4.9716 4.99414 
4.76745 4.77 4.77739 4.79253 4.81755 4.85215 4.89333 4.93543 4.97141 4.9941 
4.75134 4.7553 4.76487 4.78249 4.80994 4.84669 4.88972 4.93336 4.97052 4.99393 
4.71087 4.71842 4.73347 4.75733 4.79083 4.83297 4.8806 4.92809 4.96823 4.99348 
4.64024 4.65408 4.67875 4.71351 4.75754 4.80899 4.86457 4.91872 4.96412 4.99267 
4.5453 4.56764 4.60532 4.65481 4.71296 4.77679 4.84285 4.90586 4.95838 4.99152 
4.4419 4.47357 4.52557 4.59125 4.66483 4.74199 4.81921 4.89167 4.95193 4.9902 
4.34799 4.38828 4.45354 4.53419 4.62187 4.71098 4.79806 4.87881 4.946 4.98898 
4.27688 4.32391 4.39949 4.49173 4.59015 4.68819 4.78246 4.86927 4.94155 4.98805 
4.23571 4.28676 4.36851 4.46759 4.57228 4.67539 4.7737 4.86388 4.93903 4.98752 
4.22321 4.26577 4.339 4.43531 4.54095 4.6376 4.7093 4.75031 4.76662 4.77003 
4.22637 4.27027 4.34506 4.4421 4.54702 4.64174 4.71129 4.75079 4.76645 4.76972 
4.24014 4.28545 4.36161 4.4586 4.56125 4.65208 4.71769 4.75456 4.7691 4.77213 
4.27537 4.32103 4.39671 4.49114 4.58873 4.67309 4.73285 4.766 4.77898 4.78168 
4.34206 4.38595 4.45773 4.54551 4.63406 4.70872 4.76052 4.78885 4.79986 4.80214 
4.44552 4.48483 4.54826 4.62428 4.69907 4.76053 4.80224 4.82471 4.83338 4.83517 
4.58233 4.61396 4.66428 4.72331 4.77988 4.82515 4.85518 4.87111 4.87721 4.87847 
4.73671 4.75808 4.79156 4.82995 4.86577 4.89366 4.91177 4.92124 4.92483 4.92557 
4.87966 4.89007 4.90614 4.92418 4.94058 4.95306 4.96101 4.96511 4.96667 4.96698 
4.97565 4.97788 4.98129 4.98504 4.98839 4.99089 4.99247 4.99328 4.99358 4.99364 
4.99364 4.96698 4.92557 4.87847 4.83517 4.80214 4.78168 4.77213 4.76972 4.77003 
4.99358 4.96667 4.92483 4.87721 4.83338 4.79986 4.77898 4.7691 4.76645 4.76662 
4.99328 4.96511 4.92124 4.87111 4.82471 4.78885 4.766 4.75456 4.75079 4.75031 
4.99247 4.96101 4.91177 4.85518 4.80224 4.76052 4.73285 4.71769 4.71129 4.7093 
4.99089 4.95306 4.89366 4.82515 4.76053 4.70872 4.67309 4.65208 4.64174 4.6376 
4.98839 4.94058 4.86577 4.77988 4.69907 4.63406 4.58873 4.56125 4.54702 4.54095 
4.98504 4.92418 4.82995 4.72331 4.62428 4.54551 4.49114 4.4586 4.4421 4.43531 
4.98129 4.90614 4.79156 4.66428 4.54826 4.45773 4.39671 4.36161 4.34506 4.339 
4.97788 4.89007 4.75808 4.61396 4.48483 4.38595 4.32103 4.28545 4.27027 4.26577 
4.97565 4.87966 4.73671 4.58233 4.44552 4.34206 4.27537 4.24014 4.22637 4.22321 
4.97565 4.87966 4.73671 4.58233 4.44552 4.34206 4.27537 4.24014 4.22637 4.22321 
4.97788 4.89007 4.75808 4.61396 4.48483 4.38595 4.32103 4.28545 4.27027 4.26577 
4.98129 4.90614 4.79156 4.66428 4.54826 4.45773 4.39671 4.36161 4.34506 4.339 
4.98504 4.92418 4.82995 4.72331 4.62428 4.54551 4.49114 4.4586 4.4421 4.43531 
4.98839 4.94058 4.86577 4.77988 4.69907 4.63405 4.58873 4.56125 4.54702 4.54095 
4.99089 4.95306 4.89366 4.82515 4.76053 4.70872 4.67309 4.65208 4.64174 4.6376 
4.99247 4.96101 4.91177 4.85518 4.80224 4.76052 4.73285 4.71769 4.71129 4.7093 
4.99328 4.96511 4.92124 4.87111 4.82471 4.78885 4.766 4.75456 4.75079 4.75031 
4.99358 4.96667 4.92483 4.87721 4.83338 4.79986 4.77898 4.7691 4.76645 4.76662 
4.99364 4.96698 4.92557 4.87847 4.83517 4.80214 4.78168 4.77213 4.76972 4.77003 
4.23571 4.28676 4.36851 4.46759 4.57228 4.67539 4.7737 4.86388 4.93903 4.98752 
4.27688 4.32391 4.39949 4.49173 4.59015 4.68819 4.78246 4.86927 4.94155 4.98805 
4.34799 4.38828 4.45354 4.53419 4.62187 4.71098 4.79806 4.87881 4.946 4.98898 
4.44189 4.47357 4.52557 4.59125 4.66483 4.74199 4.81921 4.89167 4.95193 4.9902 
4.5453 4.56764 4.60532 4.65481 4.71296 4.77679 4.84285 4.90586 4.95838 4.99152 
4.64024 4.65408 4.67875 4.71351 4.75754 4.80899 4.86457 4.91872 4.96412 4.99267 
4.71087 4.71842 4.73347 4.75733 4.79083 4.83297 4.8806 4.92809 4.96823 4.99348 
4.75134 4.7553 4.76487 4.78249 4.80994 4.84669 4.88972 4.93336 4.97052 4.99393 
4.76745 4.77 4.77739 4.79253 4.81755 4.85215 4.89333 4.93543 4.97141 4.9941 
4.77082 4.77307 4.78001 4.79463 4.81915 4.85329 4.89408 4.93586 4.9716 4.99414 
4.23571 4.27688 4.34799 4.44189 4.5453 4.64024 4.71087 4.75134 4.76745 4.77082 
4.28676 4.32391 4.38828 4.47357 4.56764 4.65408 4.71842 4.7553 4.77 4.77307 
4.36851 4.39949 4.45354 4.52557 4.60532 4.67875 4.73347 4.76487 4.77739 4.78001 
4.46759 4.49173 4.53419 4.59125 4.65481 4.71351 4.75733 4.78249 4.79253 4.79463 
4.57228 4.59015 4.62187 4.66483 4.71296 4.75754 4.79083 4.80994 4.81755 4.81915 
4.67539 4.68819 4.71098 4.74199 4.77679 4.80899 4.83297 4.84669 4.85215 4.85329 
4.7737 4.78246 4.79806 4.81921 4.84285 4.86457 4.8806 4.88972 4.89333 4.89408 
4.86388 4.86927 4.87881 4.89167 4.90586 4.91872 4.92809 4.93336 4.93543 4.93586 
4.93903 4.94155 4.946 4.95193 4.95838 4.96412 4.96823 4.97052 4.97141 4.9716 
4.98752 4.98805 4.98898 4.9902 4.99152 4.99267 4.99348 4.99393 4.9941 4.99414 
4.97565 4.97788 4.98129 4.98504 4.98839 4.99089 4.99247 4.99328 4.99358 4.99364 
4.87966 4.89007 4.90614 4.92418 4.94058 4.95306 4.96101 4.96511 4.96667 4.96698 
4.73671 4.75808 4.79156 4.82995 4.86577 4.89366 4.91177 4.92124 4.92483 4.92557 
4.58233 4.61396 4.66428 4.72331 4.77988 4.82515 4.85518 4.87111 4.87721 4.87847 
4.44552 4.48483 4.54826 4.62428 4.69907 4.76053 4.80224 4.82471 4.83338 4.83517 
4.34206 4.38595 4.45773 4.54551 4.63406 4.70872 4.76052 4.78885 4.79986 4.80214 
4.27537 4.32103 4.39671 4.49114 4.58873 4.67309 4.73285 4.766 4.77898 4.78168 
4.24014 4.28545 4.36161 4.4586 4.56125 4.65208 4.71769 4.75456 4.7691 4.77213 
4.22637 4.27027 4.34506 4.4421 4.54702 4.64174 4.71129 4.75079 4.76645 4.76972 
4.22321 4.26577 4.339 4.43531 4.54095 4.6376 4.7093 4.75031 4.76662 4.77003 
3.44257 3.5023 3.6092 3.76137 3.95444 4.17942 4.42055 4.65373 4.84772 4.96966 
3.50738 3.56408 3.66565 3.81046 3.99455 4.20963 4.44088 4.66527 4.85255 4.97059 
3.60424 3.65599 3.74896 3.88207 4.05224 4.25236 4.46908 4.68093 4.85899 4.97181 
3.71159 3.75702 3.83922 3.95811 4.11194 4.2952 4.4963 4.69542 4.86468 4.97286 
3.81652 3.85462 3.92463 4.02796 4.1647 4.33123 4.51779 4.70597 4.86846 4.97351 
3.9164 3.94638 4.00318 4.09021 4.20974 4.36031 4.53387 4.71309 4.87068 4.97385 
4.01107 4.0326 4.07585 4.14652 4.24933 4.38497 4.54694 4.7186 4.87232 4.9741 
4.0961 4.10974 4.14041 4.1961 4.28383 4.40628 4.55829 4.72361 4.874 4.97442 
4.16303 4.17042 4.19115 4.23502 4.31091 4.4231 4.56744 4.72791 4.87563 4.97477 
4.20334 4.207 4.22179 4.25858 4.32735 4.43337 4.57312 4.7307 4.87676 4.97502 
1.06618 1.17958 1.39364 1.71961 2.16309 2.7137 3.33858 3.97681 4.53716 4.90573 
1.23164 1.34419 1.55507 1.87351 2.30308 2.83268 3.43014 4.03681 4.566 4.91195 
1.51158 1.62152 1.82544 2.12956 2.53459 3.0284 3.57989 4.13422 4.61239 4.92184 
1.87337 1.97814 2.17042 2.45327 2.82462 3.27132 3.76381 4.25232 4.66783 4.93344 
2.26977 2.36676 2.54306 2.79915 3.13081 3.52437 3.95248 4.37132 4.72268 4.94471 
2.64702 2.73458 2.89254 3.11967 3.41053 3.75179 4.11891 4.47416 4.76916 4.95411 
2.96042 3.03852 3.17872 3.37892 3.63341 3.92987 4.24671 4.55155 4.80351 4.96097 
3.18871 3.25883 3.38437 3.56303 3.78942 4.05244 4.33308 4.6029 4.82594 4.9654 
3.33414 3.39855 3.51378 3.67767 3.88529 4.12664 4.38452 4.63298 4.8389 4.96794 
3.40913 3.47035 3.57989 3.73575 3.93337 4.16341 4.40969 4.64751 4.84509 4.96915 
1.02692 1.02812 1.03025 1.03322 1.03693 1.04091 1.04438 1.04661 1.04756 1.04776 
1.14119 1.14636 1.15584 1.16963 1.18705 1.20582 1.22207 1.2325 1.23691 1.23785 
1.35737 1.36895 1.39003 1.42046 1.45836 1.49844 1.53252 1.55407 1.56313 1.56506 
1.68667 1.70518 1.73871 1.78656 1.84511 1.90571 1.95618 1.98761 2.00071 2.00349 
2.13467 2.15852 2.20144 2.26201 2.33483 2.40868 2.46896 2.50595 2.52124 2.52448 
2.69072 2.71624 2.76205 2.82618 2.90225 2.97808 3.03892 3.07578 3.09091 3.09411 
3.32156 3.34432 3.38519 3.44221 3.50923 3.57511 3.62721 3.65842 3.67115 3.67383 
3.96589 3.98205 4.01121 4.05196 4.09962 4.14596 4.18217 4.20364 4.21235 4.21419 
4.53194 4.53995 4.55453 4.575 4.59887 4.6219 4.63972 4.6502 4.65443 4.65532 
4.90455 4.9061 4.90896 4.91309 4.91799 4.92275 4.92642 4.92857 4.92944 4.92962 
4.92962 4.92944 4.92857 4.92642 4.92275 4.91799 4.91309 4.90896 4.9061 4.90455 
4.65532 4.65443 4.6502 4.63972 4.6219 4.59887 4.575 4.55453 4.53995 4.53194 
4.21419 4.21235 4.20364 4.18217 4.14596 4.09962 4.05196 4.01121 3.98205 3.96589 
3.67384 3.67115 3.65842 3.62721 3.57511 3.50923 3.44221 3.38518 3.34432 3.32156 
3.09411 3.09091 3.07578 3.03892 2.97808 2.90225 2.82617 2.76205 2.71624 2.69072 
2.52448 2.52124 2.50595 2.46896 2.40868 2.33483 2.26201 2.20144 2.15852 2.13467 
2.00349 2.00071 1.98761 1.95618 1.90571 1.84511 1.78656 1.73871 1.70518 1.68667 
1.56506 1.56313 1.55407 1.53252 1.49844 1.45836 1.42046 1.39003 1.36895 1.35737 
1.23785 1.23691 1.2325 1.22207 1.20582 1.18705 1.16963 1.15584 1.14636 1.14119 
1.04776 1.04756 1.04661 1.04438 1.04091 1.03693 1.03322 1.03025 1.02812 1.02692 
4.77003 4.76662 4.75031 4.7093 4.6376 4.54095 4.43531 4.339 4.26577 4.22321 
4.76972 4.76645 4.75079 4.71129 4.64174 4.54702 4.4421 4.34506 4.27027 4.22637 
4.77213 4.7691 4.75456 4.71769 4.65208 4.56125 4.4586 4.36161 4.28545 4.24014 
4.78168 4.77898 4.766 4.73285 4.67309 4.58873 4.49114 4.39671 4.32103 4.27537 
4.80214 4.79986 4.78885 4.76052 4.70872 4.63406 4.54551 4.45773 4.38595 4.34206 
4.83517 4.83338 4.82471 4.80224 4.76053 4.69907 4.62428 4.54826 4.48483 4.44552 
4.87847 4.87721 4.87111 4.85518 4.82515 4.77988 4.72331 4.66428 4.61396 4.58233 
4.92557 4.92483 4.92124 4.91177 4.89366 4.86577 4.82995 4.79156 4.75808 4.73671 
4.96698 4.96667 4.96511 4.96101 4.95306 4.94058 4.92418 4.90614 4.89007 4.87966 
4.99364 4.99358 4.99328 4.99247 4.99089 4.98839 4.98504 4.98129 4.97788 4.97565 
4.99414 4.9941 4.99393 4.99348 4.99267 4.99152 4.9902 4.98898 4.98805 4.98752 
4.9716 4.97141 4.97052 4.96823 4.96412 4.95838 4.95193 4.946 4.94155 4.93903 
4.93586 4.93543 4.93336 4.92809 4.91872 4.90586 4.89167 4.87881 4.86927 4.86388 
4.89408 4.89333 4.88972 4.8806 4.86457 4.84285 4.81921 4.79806 4.78246 4.7737 
4.85329 4.85215 4.84669 4.83297 4.80899 4.77679 4.74199 4.71098 4.68819 4.67539 
4.81915 4.81755 4.80994 4.79083 4.75754 4.71296 4.66483 4.62187 4.59015 4.57228 
4.79463 4.79253 4.78249 4.75733 4.71351 4.65481 4.59125 4.53419 4.49173 4.46759 
4.78001 4.77739 4.76487 4.73347 4.67875 4.60532 4.52557 4.45354 4.39949 4.36851 
4.77307 4.77 4.7553 4.71842 4.65408 4.56764 4.47357 4.38828 4.32391 4.28676 
4.77082 4.76745 4.75134 4.71087 4.64024 4.5453 4.44189 4.34799 4.27688 4.23571 
4.99364 4.99358 4.99328 4.99247 4.99089 4.98839 4.98504 4.98129 4.97788 4.97565 
4.96698 4.96667 4.96511 4.96101 4.95306 4.94058 4.92418 4.90614 4.89007 4.87966 
4.92557 4.92483 4.92124 4.91177 4.89366 4.86577 4.82995 4.79156 4.75808 4.73671 
4.87847 4.87721 4.87111 4.85518 4.82515 4.77988 4.72331 4.66428 4.61396 4.58233 
4.83517 4.83338 4.82471 4.80224 4.76053 4.69907 4.62428 4.54826 4.48483 4.44552 
4.80214 4.79986 4.78885 4.76052 4.70872 4.63406 4.54551 4.45773 4.38595 4.34206 
4.78168 4.77898 4.766 4.73285 4.67309 4.58873 4.49114 4.39671 4.32103 4.27537 
4.77213 4.7691 4.75456 4.71769 4.65208 4.56125 4.4586 4.36161 4.28545 4.24014 
4.76972 4.76645 4.75079 4.71129 4.64174 4.54702 4.4421 4.34506 4.27027 4.22637 
4.77003 4.76662 4.75031 4.7093 4.6376 4.54095 4.43531 4.339 4.26577 4.22321 
4.77082 4.76745 4.75134 4.71087 4.64024 4.5453 4.44189 4.34799 4.27688 4.23571 
4.77307 4.77 4.7553 4.71842 4.65408 4.56764 4.47357 4.38828 4.32391 4.28676 
4.78001 4.77739 4.76487 4.73347 4.67875 4.60532 4.52557 4.45354 4.39949 4.36851 
4.79463 4.79253 4.78249 4.75733 4.71351 4.65481 4.59125 4.53419 4.49173 4.46759 
4.81915 4.81755 4.80994 4.79083 4.75754 4.71296 4.66483 4.62187 4.59015 4.57228 
4.85329 4.85215 4.84669 4.83297 4.80899 4.77679 4.74199 4.71098 4.68819 4.67539 
4.89408 4.89333 4.88972 4.8806 4.86457 4.84285 4.81921 4.79806 4.78246 4.7737 
4.93586 4.93543 4.93336 4.92809 4.91872 4.90586 4.89167 4.87881 4.86927 4.86388 
4.9716 4.97141 4.97052 4.96823 4.96412 4.95838 4.95193 4.946 4.94155 4.93903 
4.99414 4.9941 4.99393 4.99348 4.99267 4.99152 4.9902 4.98898 4.98805 4.98752 
1.04776 1.04756 1.04661 1.04438 1.04091 1.03693 1.03322 1.03025 1.02812 1.02692 
1.23785 1.23691 1.2325 1.22207 1.20582 1.18705 1.16963 1.15584 1.14636 1.14119 
1.56506 1.56313 1.55407 1.53252 1.49844 1.45836 1.42046 1.39003 1.36895 1.35737 
2.00349 2.00071 1.98761 1.95618 1.90571 1.84511 1.78656 1.73871 1.70518 1.68667 
2.52448 2.52124 2.50595 2.46896 2.40868 2.33483 2.26201 2.20144 2.15852 2.13467 
3.09411 3.09091 3.07578 3.03892 2.97808 2.90225 2.82618 2.76205 2.71624 2.69072 
3.67383 3.67115 3.65842 3.62721 3.57511 3.50923 3.44221 3.38519 3.34432 3.32156 
4.21419 4.21235 4.20364 4.18217 4.14596 4.09962 4.05196 4.01121 3.98205 3.96589 
4.65532 4.65443 4.6502 4.63972 4.6219 4.59887 4.575 4.55453 4.53995 4.53194 
4.92962 4.92944 4.92857 4.92642 4.92275 4.91799 4.91309 4.90896 4.9061 4.90455 
4.96915 4.84509 4.64751 4.40969 4.16341 3.93337 3.73575 3.57989 3.47035 3.40913 
4.96794 4.8389 4.63298 4.38452 4.12664 3.88529 3.67767 3.51378 3.39855 3.33414 
4.9654 4.82594 4.6029 4.33308 4.05244 3.78942 3.56303 3.38437 3.25883 3.18871 
4.96097 4.80351 4.55155 4.24671 3.92987 3.63341 3.37892 3.17872 3.03852 2.96042 
4.95411 4.76916 4.47416 4.11891 3.75179 3.41053 3.11967 2.89254 2.73458 2.64702 
4.94471 4.72268 4.37132 3.95248 3.52437 3.13081 2.79915 2.54306 2.36676 2.26977 
4.93344 4.66783 4.25232 3.76381 3.27132 2.82462 2.45327 2.17042 1.97814 1.87337 
4.92184 4.61239 4.13422 3.57989 3.0284 2.53459 2.12956 1.82544 1.62152 1.51158 
4.91195 4.566 4.03681 3.43014 2.83268 2.30308 1.87351 1.55507 1.34419 1.23164 
4.90573 4.53716 3.97681 3.33858 2.7137 2.16309 1.71961 1.39364 1.17958 1.06618 
3.36656 3.25399 3.07786 2.87052 2.66011 2.46555 2.29752 2.16228 2.06458 2.00863 
3.29066 3.17769 3.00161 2.79541 2.58738 2.39621 2.23214 2.10088 2.00652 1.95268 
3.14422 3.03278 2.85997 2.65903 2.458 2.27498 2.11939 1.99605 1.90805 1.85811 
2.91567 2.8108 2.64874 2.46143 2.27555 2.10792 1.9669 1.85623 1.77795 1.73379 
2.60353 2.51229 2.37134 2.20885 2.04843 1.90487 1.78518 1.69209 1.62675 1.5901 
2.22916 2.15767 2.04698 1.91929 1.79348 1.68142 1.58857 1.51685 1.46681 1.43888 
1.83668 1.78756 1.71124 1.62304 1.53615 1.45893 1.39518 1.34616 1.31207 1.29312 
1.47904 1.45082 1.40684 1.35599 1.30586 1.26137 1.2247 1.19657 1.17704 1.16622 
1.20265 1.19066 1.17197 1.15042 1.12916 1.11031 1.09478 1.08288 1.07461 1.07005 
1.03938 1.03696 1.0333 1.02915 1.02504 1.02141 1.01841 1.01611 1.01451 1.01364 
4.1928 4.15062 4.08048 3.99114 3.89152 3.78651 3.67687 3.5658 3.46652 3.40051 
4.15062 4.10449 4.02742 3.92854 3.81739 3.70007 3.57919 3.4599 3.35614 3.28846 
4.08048 4.02742 3.93847 3.82381 3.69445 3.55863 3.42177 3.29151 3.18224 3.11276 
3.99114 3.92854 3.82381 3.68925 3.53838 3.3823 3.22936 3.08915 2.9757 2.90538 
3.89152 3.81739 3.69445 3.53838 3.36612 3.19175 3.02592 2.8791 2.76402 2.69428 
3.78651 3.70007 3.55863 3.3823 3.19175 3.00357 2.82968 2.6803 2.56629 2.49847 
3.67687 3.57919 3.42177 3.22936 3.02592 2.82968 2.65279 2.50455 2.39375 2.3288 
3.5658 3.4599 3.29151 3.08915 2.8791 2.6803 2.50455 2.35995 2.25355 2.19184 
3.46652 3.35614 3.18224 2.9757 2.76402 2.56629 2.39375 2.25355 2.15144 2.09264 
3.40051 3.28846 3.11276 2.90538 2.69428 2.49847 2.3288 2.19184 2.09264 2.03574 
4.97502 4.87676 4.7307 4.57312 4.43337 4.32735 4.25858 4.22179 4.207 4.20334 
4.97477 4.87563 4.72791 4.56744 4.4231 4.31091 4.23502 4.19115 4.17042 4.16303 
4.97442 4.874 4.72361 4.55829 4.40628 4.28383 4.1961 4.14041 4.10974 4.0961 
4.9741 4.87232 4.7186 4.54694 4.38497 4.24933 4.14652 4.07585 4.0326 4.01107 
4.97385 4.87068 4.71309 4.53387 4.36031 4.20974 4.09021 4.00318 3.94638 3.9164 
4.97351 4.86846 4.70597 4.51779 4.33123 4.1647 4.02796 3.92463 3.85461 3.81652 
4.97286 4.86468 4.69542 4.4963 4.2952 4.11194 3.95811 3.83922 3.75702 3.71159 
4.97181 4.85899 4.68093 4.46908 4.25236 4.05224 3.88207 3.74896 3.65599 3.60424 
4.97059 4.85255 4.66527 4.44088 4.20963 3.99455 3.81046 3.66565 3.56408 3.50738 
4.96966 4.84772 4.65373 4.42055 4.17942 3.95444 3.76137 3.6092 3.5023 3.44257 
4.99414 4.9716 4.93586 4.89408 4.85329 4.81915 4.79463 4.78001 4.77307 4.77082 
4.9941 4.97141 4.93543 4.89333 4.85215 4.81755 4.79253 4.77739 4.77 4.76745 
4.99393 4.97052 4.93336 4.88972 4.84669 4.80994 4.78249 4.76487 4.7553 4.75134 
4.99348 4.96823 4.92809 4.8806 4.83297 4.79083 4.75733 4.73347 4.71842 4.71087 
4.99267 4.96412 4.91872 4.86457 4.80899 4.75754 4.71351 4.67875 4.65408 4.64024 
4.99152 4.95838 4.90586 4.84285 4.77679 4.71296 4.65481 4.60532 4.56764 4.5453 
4.9902 4.95193 4.89167 4.81921 4.74199 4.66483 4.59125 4.52557 4.47357 4.4419 
4.98898 4.946 4.87881 4.79806 4.71098 4.62187 4.53419 4.45354 4.38828 4.34799 
4.98805 4.94155 4.86927 4.78246 4.68819 4.59015 4.49173 4.39949 4.32391 4.27688 
4.98752 4.93903 4.86388 4.7737 4.67539 4.57228 4.46759 4.36851 4.28676 4.23571 
4.97502 4.97477 4.97442 4.9741 4.97385 4.97351 4.97286 4.97181 4.97059 4.96966 
4.87676 4.87563 4.874 4.87232 4.87068 4.86846 4.86468 4.85899 4.85255 4.84772 
4.7307 4.72791 4.72361 4.7186 4.71309 4.70597 4.69542 4.68093 4.66527 4.65373 
4.57312 4.56744 4.55829 4.54694 4.53387 4.51779 4.4963 4.46908 4.44088 4.42055 
4.43337 4.4231 4.40628 4.38497 4.36031 4.33123 4.2952 4.25236 4.20963 4.17942 
4.32735 4.31091 4.28383 4.24933 4.20974 4.1647 4.11194 4.05224 3.99455 3.95444 
4.25858 4.23502 4.1961 4.14652 4.09021 4.02796 3.95811 3.88207 3.81046 3.76137 
4.22179 4.19115 4.14041 4.07585 4.00318 3.92463 3.83922 3.74896 3.66565 3.6092 
4.207 4.17042 4.10974 4.0326 3.94638 3.85462 3.75702 3.65599 3.56408 3.5023 
4.20334 4.16303 4.0961 4.01107 3.9164 3.81652 3.71159 3.60424 3.50738 3.44257 
4.77003 4.76972 4.77213 4.78168 4.80214 4.83517 4.87847 4.92557 4.96698 4.99364 
4.76662 4.76645 4.7691 4.77898 4.79986 4.83338 4.87721 4.92483 4.96667 4.99358 
4.75031 4.75079 4.75456 4.766 4.78885 4.82471 4.87111 4.92124 4.96511 4.99328 
4.7093 4.71129 4.71769 4.73285 4.76052 4.80224 4.85518 4.91177 4.96101 4.99247 
4.6376 4.64174 4.65208 4.67309 4.70872 4.76053 4.82515 4.89366 4.95306 4.99089 
4.54095 4.54702 4.56125 4.58873 4.63406 4.69907 4.77988 4.86577 4.94058 4.98839 
4.43531 4.4421 4.4586 4.49114 4.54551 4.62428 4.72331 4.82995 4.92418 4.98504 
4.339 4.34506 4.36161 4.39671 4.45773 4.54826 4.66428 4.79156 4.90614 4.98129 
4.26577 4.27027 4.28545 4.32103 4.38595 4.48483 4.61396 4.75808 4.89007 4.97788 
4.22321 4.22637 4.24014 4.27537 4.34206 4.44552 4.58233 4.73671 4.87966 4.97565 
4.22321 4.22637 4.24014 4.27537 4.34206 4.44552 4.58233 4.73671 4.87966 4.97565 
4.26577 4.27027 4.28545 4.32103 4.38595 4.48483 4.61396 4.75808 4.89007 4.97788 
4.339 4.34506 4.36161 4.39671 4.45773 4.54826 4.66428 4.79156 4.90614 4.98129 
4.43531 4.4421 4.4586 4.49114 4.54551 4.62428 4.72331 4.82995 4.92418 4.98504 
4.54095 4.54702 4.56125 4.58873 4.63405 4.69907 4.77988 4.86577 4.94058 4.98839 
4.6376 4.64174 4.65208 4.67309 4.70872 4.76053 4.82515 4.89366 4.95306 4.99089 
4.7093 4.71129 4.71769 4.73285 4.76052 4.80224 4.85518 4.91177 4.96101 4.99247 
4.75031 4.75079 4.75456 4.766 4.78885 4.82471 4.87111 4.92124 4.96511 4.99328 
4.76662 4.76645 4.7691 4.77898 4.79986 4.83338 4.87721 4.92483 4.96667 4.99358 
4.77003 4.76972 4.77213 4.78168 4.80214 4.83517 4.87847 4.92557 4.96698 4.99364 
4.98752 4.93903 4.86388 4.7737 4.67539 4.57228 4.46759 4.36851 4.28676 4.23571 
4.98805 4.94155 4.86927 4.78246 4.68819 4.59015 4.49173 4.39949 4.32391 4.27688 
4.98898 4.946 4.87881 4.79806 4.71098 4.62187 4.53419 4.45354 4.38828 4.34799 
4.9902 4.95193 4.89167 4.81921 4.74199 4.66483 4.59125 4.52557 4.47357 4.44189 
4.99152 4.95838 4.90586 4.84285 4.77679 4.71296 4.65481 4.60532 4.56764 4.5453 
4.99267 4.96412 4.91872 4.86457 4.80899 4.75754 4.71351 4.67875 4.65408 4.64024 
4.99348 4.96823 4.92809 4.8806 4.83297 4.79083 4.75733 4.73347 4.71842 4.71087 
4.99393 4.97052 4.93336 4.88972 4.84669 4.80994 4.78249 4.76487 4.7553 4.75134 
4.9941 4.97141 4.93543 4.89333 4.85215 4.81755 4.79253 4.77739 4.77 4.76745 
4.99414 4.9716 4.93586 4.89408 4.85329 4.81915 4.79463 4.78001 4.77307 4.77082 
4.20334 4.16303 4.0961 4.01107 3.9164 3.81652 3.71159 3.60424 3.50738 3.44257 
4.207 4.17042 4.10974 4.0326 3.94638 3.85461 3.75702 3.65599 3.56408 3.5023 
4.22179 4.19115 4.14041 4.07585 4.00318 3.92463 3.83922 3.74896 3.66565 3.6092 
4.25858 4.23502 4.1961 4.14652 4.09021 4.02796 3.95811 3.88207 3.81046 3.76137 
4.32735 4.31091 4.28383 4.24933 4.20974 4.1647 4.11194 4.05224 3.99455 3.95444 
4.43337 4.4231 4.40628 4.38497 4.36031 4.33123 4.2952 4.25236 4.20963 4.17942 
4.57312 4.56744 4.55829 4.54694 4.53387 4.51779 4.4963 4.46908 4.44088 4.42055 
4.7307 4.72791 4.72361 4.7186 4.71309 4.70597 4.69542 4.68093 4.66527 4.65373 
4.87676 4.87563 4.874 4.87232 4.87068 4.86846 4.86468 4.85899 4.85255 4.84772 
4.97502 4.97477 4.97442 4.9741 4.97385 4.97351 4.97286 4.97181 4.97059 4.96966 
4.96966 4.84772 4.65373 4.42055 4.17942 3.95444 3.76137 3.6092 3.5023 3.44257 
4.97059 4.85255 4.66527 4.44088 4.20963 3.99455 3.81046 3.66565 3.56408 3.50738 
4.97181 4.85899 4.68093 4.46908 4.25236 4.05224 3.88207 3.74896 3.65599 3.60424 
4.97286 4.86468 4.69542 4.4963 4.2952 4.11194 3.95811 3.83922 3.75702 3.71159 
4.97351 4.86846 4.70597 4.51779 4.33123 4.1647 4.02796 3.92463 3.85461 3.81652 
4.97385 4.87068 4.71309 4.53387 4.36031 4.20974 4.09021 4.00318 3.94638 3.9164 
4.9741 4.87232 4.7186 4.54694 4.38497 4.24933 4.14652 4.07585 4.0326 4.01107 
4.97442 4.874 4.72361 4.55829 4.40628 4.28383 4.1961 4.14041 4.10974 4.0961 
4.97477 4.87563 4.72791 4.56744 4.4231 4.31091 4.23502 4.19115 4.17042 4.16303 
4.97502 4.87676 4.7307 4.57312 4.43337 4.32735 4.25858 4.22179 4.207 4.20334 
3.40051 3.28846 3.11276 2.90538 2.69428 2.49847 2.3288 2.19184 2.09264 2.03574 
3.46652 3.35614 3.18224 2.9757 2.76402 2.56629 2.39375 2.25355 2.15144 2.09264 
3.5658 3.4599 3.29151 3.08915 2.8791 2.6803 2.50455 2.35995 2.25355 2.19184 
3.67687 3.57919 3.42177 3.22936 3.02592 2.82968 2.65279 2.50455 2.39375 2.3288 
3.78651 3.70007 3.55863 3.3823 3.19175 3.00357 2.82968 2.6803 2.56628 2.49847 
3.89152 3.81739 3.69445 3.53838 3.36612 3.19175 3.02592 2.8791 2.76402 2.69428 
3.99114 3.92854 3.82381 3.68925 3.53838 3.3823 3.22936 3.08915 2.97569 2.90538 
4.08048 4.02742 3.93847 3.82381 3.69445 3.55863 3.42177 3.29151 3.18224 3.11276 
4.15062 4.10449 4.02742 3.92854 3.81739 3.70007 3.57919 3.4599 3.35614 3.28846 
4.1928 4.15062 4.08048 3.99114 3.89152 3.78651 3.67687 3.5658 3.46652 3.40051 
1.03938 1.03696 1.0333 1.02915 1.02504 1.02141 1.01841 1.01611 1.01451 1.01364 
1.20265 1.19066 1.17197 1.15042 1.12916 1.11031 1.09478 1.08288 1.07461 1.07005 
1.47904 1.45082 1.40684 1.35599 1.30586 1.26137 1.2247 1.19657 1.17704 1.16622 
1.83668 1.78756 1.71124 1.62304 1.53615 1.45893 1.39518 1.34616 1.31207 1.29312 
2.22916 2.15767 2.04698 1.91929 1.79348 1.68142 1.58857 1.51685 1.46681 1.43888 
2.60353 2.51229 2.37134 2.20885 2.04843 1.90487 1.78518 1.69209 1.62675 1.5901 
2.91567 2.8108 2.64874 2.46143 2.27555 2.10792 1.9669 1.85623 1.77795 1.73379 
3.14422 3.03278 2.85997 2.65903 2.458 2.27498 2.11939 1.99605 1.90805 1.85811 
3.29066 3.17769 3.00161 2.79541 2.58738 2.39621 2.23214 2.10088 2.00652 1.95268 
3.36656 3.25399 3.07786 2.87052 2.66011 2.46555 2.29752 2.16228 2.06458 2.00863 
4.90573 4.53716 3.97681 3.33858 2.7137 2.16309 1.71961 1.39364 1.17958 1.06618 
4.91195 4.566 4.03681 3.43014 2.83268 2.30308 1.87351 1.55507 1.34419 1.23164 
4.92184 4.61239 4.13422 3.57989 3.0284 2.53459 2.12956 1.82544 1.62152 1.51158 
4.93344 4.66783 4.25232 3.76381 3.27132 2.82462 2.45327 2.17042 1.97814 1.87337 
4.94471 4.72268 4.37132 3.95248 3.52437 3.13081 2.79915 2.54306 2.36676 2.26977 
4.95411 4.76916 4.47416 4.11891 3.75179 3.41053 3.11967 2.89254 2.73458 2.64702 
4.96097 4.80351 4.55155 4.24671 3.92987 3.63341 3.37892 3.17872 3.03852 2.96042 
4.9654 4.82594 4.6029 4.33308 4.05244 3.78942 3.56303 3.38437 3.25883 3.18871 
4.96794 4.8389 4.63298 4.38452 4.12664 3.88529 3.67767 3.51378 3.39855 3.33414 
4.96915 4.84509 4.64751 4.40969 4.16341 3.93337 3.73575 3.57989 3.47035 3.40913 
1.982 1.92709 1.83443 1.71291 1.57281 1.4257 1.28416 1.16107 1.06786 1.01321 
1.92709 1.87443 1.78586 1.67024 1.53762 1.399 1.26611 1.15078 1.06352 1.01237 
1.83443 1.78586 1.70459 1.59923 1.47935 1.35496 1.23637 1.13382 1.05636 1.01099 
1.71291 1.67024 1.59923 1.50795 1.40502 1.29913 1.19884 1.11247 1.04736 1.00925 
1.57281 1.53762 1.47935 1.40502 1.32193 1.23715 1.15736 1.08893 1.03744 1.00734 
1.4257 1.399 1.35496 1.29913 1.23715 1.17433 1.11551 1.06524 1.02747 1.00541 
1.28416 1.26611 1.23637 1.19884 1.15736 1.11551 1.07647 1.04318 1.01818 1.00362 
1.16107 1.15078 1.13382 1.11247 1.08893 1.06524 1.04318 1.02439 1.01028 1.00207 
1.06786 1.06352 1.05636 1.04736 1.03744 1.02747 1.01818 1.01028 1.00433 1.00088 
1.01321 1.01237 1.01099 1.00925 1.00734 1.00541 1.00362 1.00207 1.00088 1.00017 
3.36656 3.29066 3.14422 2.91567 2.60353 2.22916 1.83668 1.47904 1.20265 1.03938 
3.25399 3.17769 3.03278 2.8108 2.51229 2.15767 1.78756 1.45082 1.19066 1.03696 
3.07786 3.00161 2.85997 2.64874 2.37134 2.04698 1.71124 1.40684 1.17197 1.0333 
2.87052 2.79541 2.65903 2.46143 2.20885 1.91929 1.62304 1.35599 1.15042 1.02915 
2.66011 2.58738 2.458 2.27555 2.04843 1.79348 1.53615 1.30586 1.12916 1.02504 
2.46555 2.39621 2.27498 2.10792 1.90487 1.68142 1.45893 1.26137 1.11031 1.02141 
2.29752 2.23214 2.11939 1.9669 1.78518 1.58857 1.39518 1.2247 1.09478 1.01841 
2.16228 2.10088 1.99605 1.85623 1.69209 1.51685 1.34616 1.19657 1.08288 1.01611 
2.06458 2.00652 1.90805 1.77795 1.62675 1.46681 1.31207 1.17704 1.07461 1.01451 
2.00863 1.95268 1.85811 1.73379 1.5901 1.43888 1.29312 1.16622 1.07005 1.01364 
4.96915 4.96794 4.9654 4.96097 4.95411 4.94471 4.93344 4.92184 4.91195 4.90573 
4.84509 4.8389 4.82594 4.80351 4.76916 4.72268 4.66783 4.61239 4.566 4.53716 
4.64751 4.63298 4.6029 4.55155 4.47416 4.37132 4.25232 4.13422 4.03681 3.97681 
4.40969 4.38452 4.33308 4.24671 4.11891 3.95248 3.76381 3.57989 3.43014 3.33858 
4.16341 4.12664 4.05244 3.92987 3.75179 3.52437 3.27132 3.0284 2.83268 2.7137 
3.93337 3.88529 3.78942 3.63341 3.41053 3.13081 2.82462 2.53459 2.30308 2.16309 
3.73575 3.67767 3.56303 3.37892 3.11967 2.79915 2.45327 2.12956 1.87351 1.71961 
3.57989 3.51378 3.38437 3.17872 2.89254 2.54306 2.17042 1.82544 1.55507 1.39364 
3.47035 3.39855 3.25883 3.03852 2.73458 2.36676 1.97814 1.62152 1.34419 1.17958 
3.40913 3.33414 3.18871 2.96042 2.64702 2.26977 1.87337 1.51158 1.23164 1.06618 
2.00863 1.95268 1.85811 1.73379 1.5901 1.43888 1.29312 1.16622 1.07005 1.01364 
2.06458 2.00652 1.90805 1.77795 1.62675 1.46681 1.31207 1.17704 1.07461 1.01451 
2.16228 2.10088 1.99605 1.85623 1.69209 1.51685 1.34616 1.19657 1.08288 1.01611 
2.29752 2.23214 2.11939 1.9669 1.78518 1.58857 1.39518 1.2247 1.09478 1.01841 
2.46555 2.39621 2.27498 2.10792 1.90487 1.68142 1.45893 1.26137 1.11031 1.02141 
2.66011 2.58738 2.458 2.27555 2.04843 1.79348 1.53615 1.30586 1.12916 1.02504 
2.87052 2.79541 2.65903 2.46143 2.20885 1.91929 1.62304 1.35599 1.15042 1.02915 
3.07786 3.00161 2.85997 2.64874 2.37134 2.04698 1.71124 1.40684 1.17197 1.0333 
3.25399 3.17769 3.03278 2.8108 2.51229 2.15767 1.78756 1.45082 1.19066 1.03696 
3.36656 3.29066 3.14422 2.91567 2.60353 2.22916 1.83668 1.47904 1.20265 1.03938 
3.40913 3.33413 3.18871 2.96042 2.64702 2.26977 1.87337 1.51158 1.23164 1.06618 
3.47035 3.39855 3.25883 3.03852 2.73457 2.36676 1.97814 1.62152 1.34419 1.17958 
3.57989 3.51378 3.38437 3.17872 2.89254 2.54306 2.17042 1.82544 1.55507 1.39364 
3.73575 3.67767 3.56303 3.37892 3.11967 2.79915 2.45327 2.12956 1.87351 1.71961 
3.93337 3.88528 3.78941 3.63341 3.41053 3.13081 2.82462 2.53459 2.30308 2.16309 
4.16341 4.12664 4.05244 3.92987 3.75179 3.52437 3.27132 3.0284 2.83268 2.7137 
4.40969 4.38452 4.33308 4.24671 4.11891 3.95248 3.76381 3.57989 3.43014 3.33858 
4.64751 4.63298 4.6029 4.55155 4.47416 4.37132 4.25232 4.13422 4.03681 3.97681 
4.84509 4.8389 4.82594 4.80351 4.76916 4.72268 4.66783 4.61239 4.566 4.53716 
4.96915 4.96794 4.9654 4.96097 4.95411 4.94471 4.93344 4.92184 4.91195 4.90573 
1.01321 1.01237 1.01099 1.00925 1.00734 1.00541 1.00362 1.00207 1.00088 1.00017 
1.06786 1.06352 1.05636 1.04736 1.03744 1.02747 1.01818 1.01028 1.00433 1.00088 
1.16107 1.15078 1.13382 1.11247 1.08893 1.06524 1.04318 1.02439 1.01028 1.00207 
1.28416 1.26611 1.23637 1.19884 1.15736 1.11551 1.07647 1.04318 1.01818 1.00362 
1.4257 1.399 1.35496 1.29913 1.23715 1.17433 1.11551 1.06524 1.02747 1.00541 
1.57281 1.53762 1.47935 1.40502 1.32193 1.23715 1.15736 1.08893 1.03744 1.00734 
1.71291 1.67024 1.59923 1.50795 1.40502 1.29913 1.19884 1.11247 1.04736 1.00925 
1.83443 1.78586 1.70459 1.59923 1.47935 1.35496 1.23637 1.13382 1.05636 1.01099 
1.92709 1.87443 1.78586 1.67024 1.53762 1.399 1.26611 1.15078 1.06352 1.01237 
1.982 1.92709 1.83443 1.71291 1.57281 1.4257 1.28416 1.16107 1.06786 1.01321 
4.92962 4.65532 4.21419 3.67383 3.09411 2.52448 2.00349 1.56506 1.23785 1.04776 
4.92944 4.65443 4.21235 3.67115 3.09091 2.52124 2.00071 1.56313 1.23691 1.04756 
4.92857 4.6502 4.20364 3.65842 3.07578 2.50595 1.98761 1.55407 1.2325 1.04661 
4.92642 4.63972 4.18217 3.62721 3.03892 2.46896 1.95618 1.53252 1.22207 1.04438 
4.92275 4.6219 4.14596 3.57511 2.97808 2.40868 1.90571 1.49844 1.20582 1.04091 
4.91799 4.59887 4.09962 3.50923 2.90225 2.33483 1.84511 1.45836 1.18705 1.03693 
4.91309 4.575 4.05196 3.44221 2.82618 2.26201 1.78656 1.42046 1.16963 1.03322 
4.90896 4.55453 4.01121 3.38519 2.76205 2.20144 1.73871 1.39003 1.15584 1.03025 
4.9061 4.53995 3.98205 3.34432 2.71624 2.15852 1.70518 1.36895 1.14636 1.02812 
4.90455 4.53194 3.96589 3.32156 2.69072 2.13467 1.68667 1.35737 1.14119 1.02692 
4.90455 4.53194 3.96589 3.32156 2.69072 2.13467 1.68667 1.35737 1.14119 1.02692 
4.9061 4.53995 3.98205 3.34432 2.71624 2.15852 1.70518 1.36895 1.14636 1.02812 
4.90896 4.55453 4.01121 3.38518 2.76205 2.20144 1.73871 1.39003 1.15584 1.03025 
4.91309 4.575 4.05196 3.44221 2.82617 2.26201 1.78656 1.42046 1.16963 1.03322 
4.91799 4.59887 4.09962 3.50923 2.90225 2.33483 1.84511 1.45836 1.18705 1.03693 
4.92275 4.6219 4.14596 3.57511 2.97808 2.40868 1.90571 1.49844 1.20582 1.04091 
4.92642 4.63972 4.18217 3.62721 3.03892 2.46896 1.95618 1.53252 1.22207 1.04438 
4.92857 4.6502 4.20364 3.65842 3.07578 2.50595 1.98761 1.55407 1.2325 1.04661 
4.92944 4.65443 4.21235 3.67115 3.09091 2.52124 2.00071 1.56313 1.23691 1.04756 
4.92962 4.65532 4.21419 3.67383 3.09411 2.52448 2.00349 1.56506 1.23785 1.04776 
