HOLE_cv 50 54 55 52 43 41 40 39 31 44 47 33 27 26 25 24 10 20 21 12 5 4 3 2 28 34 37 29 19 16 15 14 30 38 42 32 23 22 18 17
HOLE1_cv 50 54 55 52 43 41 40 39
HOLE3_cv 10 20 21 12 5 4 3 2
HOLE4_cv 28 34 37 29 19 16 15 14
HOLE5_cv 30 38 42 32 23 22 18 17
HOLE2_cv 31 44 47 33 27 26 25 24
HOLE_fa 104 105 106 107 108 109 110 111 112 113 114 115 116 117 118 119 120 121 122 123 124 125 126 127 128 129 130 131 132 133 134 135 136 137 138 139 140 141 142 143
HOLE1_fa 106 107 109 111 110 108 104 105
HOLE2_fa 114 115 117 119 118 116 112 113
HOLE3_fa 122 123 125 127 126 124 120 121
HOLE4_fa 130 131 133 135 134 132 128 129
HOLE5_fa 138 139 141 143 142 140 136 137
WALL_cv 0 1 3 4 6 7 8 13 14 27 28 33 35 46 48 49 51 53 54 55
WALL_fa 80 81 82 83 84 85 86 87 88 89 90 91 92 93 94 95 96 97 98 99 100 101 102 103
C_list 10.0 6.0 6.0 10.0 2.0 6.0 6.0 2.0 6.0 6.0
chunk1 11 10 13 12 20 21 1 0 3 2 5 4 7 6 9 8
chunk2 42 24 25 26 27 22 23 47 44 28 29 38 15 14 17 16 19 18 31 30 37 34 33 32
chunk3 39 48 49 46 54 45 51 43 35 41 55 36 40 52 53 50
fa1_list 13 15 22 19 31 34
fa2_list 58 57 51 64 72 67
chunk1_rcv 8 9 13 11 20 21
chunk2_lcv 15 16 26 25 18 22
chunk2_rcv 38 37 34 42 47 44
chunk3_lcv 40 36 35 41 46 45
