0.0 0.0 2.0000000596 2.0000000596
2.0000000596 2.0000000596 4.00000011921 4.00000011921
4.00000011921 4.00000011921 5.0 5.29289293289
4.00000011921 5.29289293289 6.0 6.0000000596
6.0000000596 6.0 6.70710659027 8.00000023842
6.70710659027 7.0 8.00000023842 8.00000023842
8.00000023842 8.00000023842 10.0 10.0
10.0 10.0 12.0 12.0
0.0 0.0 2.0000000596 2.0000000596
2.0000000596 2.0000000596 4.00000011921 4.00000011921
4.00000011921 4.00000011921 5.29289340973 5.0
8.00000023842 8.00000023842 10.0 10.0
7.0 6.70710659027 8.00000023842 8.00000023842
10.0 10.0 12.0 12.0
0.0 0.0 1.0 1.29289329052
0.0 1.29289329052 2.0 2.0000000596
2.0000000596 2.0 2.70710659027 4.00000011921
4.00000011921 4.00000011921 5.0 5.29289340973
4.00000011921 5.29289340973 6.0 6.0000000596
2.70710659027 3.0 4.00000011921 4.00000011921
5.29289340973 4.00000011921 6.0000000596 6.0
6.0 6.0000000596 8.00000023842 6.70710659027
6.0000000596 6.0 6.70710659027 8.00000023842
6.70710659027 7.0 8.00000023842 8.00000023842
8.00000023842 8.00000023842 9.0 9.29289340973
8.00000023842 9.29289340973 10.0 10.0
10.0 10.0 10.7071065903 12.0
10.7071065903 11.0 12.0 12.0
0.0 0.0 1.29289317131 1.0
3.0 2.70710682869 4.00000011921 4.00000011921
4.00000011921 4.00000011921 5.29289340973 5.0
8.00000023842 8.00000023842 9.29289340973 9.0
7.0 6.70710659027 8.00000023842 8.00000023842
11.0 10.7071065903 12.0 12.0
1.29289317131 0.0 2.0000000596 2.0
0.0 0.0 2.0000000596 2.0000000596
2.0000000596 2.0000000596 4.00000011921 4.00000011921
2.0 2.0000000596 4.00000011921 2.70710682869
5.29289340973 4.00000011921 6.0000000596 6.0
4.00000011921 4.00000011921 5.0 5.29289340973
4.00000011921 5.29289340973 6.0 6.0000000596
6.0000000596 6.0 6.70710659027 8.00000023842
6.0 6.0000000596 8.00000023842 6.70710659027
6.70710659027 7.0 8.00000023842 8.00000023842
9.29289340973 8.00000023842 10.0 10.0
8.00000023842 8.00000023842 10.0 10.0
10.0 10.0 12.0 12.0
10.0 10.0 12.0 10.7071065903
0.0 0.0 2.0000000596 2.0000000596
2.0000000596 2.0000000596 4.00000011921 4.00000011921
4.00000011921 4.00000011921 5.29289340973 5.0
8.00000023842 8.00000023842 10.0 10.0
7.0 6.70710659027 8.00000023842 8.00000023842
10.0 10.0 12.0 12.0
5.29289340973 4.00000011921 6.0000000596 6.0
6.0 6.0000000596 8.00000023842 6.70710659027
